…
Using Statistics to understand the data (contd.)
========================================================
- Now lets draw some plots that help understand the data. We already drew the barplot. Lets now draw some plots for *derived features* i.e. features/variables/columns that dont exist in the dataset as received but can be **derived**.

```r
library(dplyr)
df_course_by_gender = df %>%
  group_by(gender, mc_program_description) %>%
  summarise(count = n()) %>% arrange(desc(count))
df_course_by_gender
```

```
# A tibble: 86 x 3
# Groups:   gender [3]
   gender                            mc_program_description count
   <fctr>                                            <fctr> <int>
 1 Female                 General Studies (AA - All Tracks)   172
 2   Male                 General Studies (AA - All Tracks)   134
 3 Female            Health Sciences (Pre-Clinical Studies)    78
 4   Male            Business / International Business (AA)    45
 5   Male        Engineering Science (AA & AS - All Tracks)    43
 6 Female          Education / Teacher Education (AA & AAT)    36
 7 Female                         Science (AS - All Tracks)    35
 8   Male Computer Science & Technologies (AA - All Tracks)    31
 9 Female            Business / International Business (AA)    28
10 Female                   Credit (Undeclared / Undecided)    25
# ... with 76 more rows
```
…
